(kicad_sch (version 20211123) (generator eeschema)

  (uuid 038c1f43-798f-48c4-9c88-39c084194de1)

  (paper "A4")

  (lib_symbols
    (symbol "MCU_Microchip_ATmega:ATmega32U4-A" (in_bom yes) (on_board yes)
      (property "Reference" "U" (id 0) (at -12.7 44.45 0)
        (effects (font (size 1.27 1.27)) (justify left bottom))
      )
      (property "Value" "ATmega32U4-A" (id 1) (at 2.54 -44.45 0)
        (effects (font (size 1.27 1.27)) (justify left top))
      )
      (property "Footprint" "Package_QFP:TQFP-44_10x10mm_P0.8mm" (id 2) (at 0 0 0)
        (effects (font (size 1.27 1.27) italic) hide)
      )
      (property "Datasheet" "http://ww1.microchip.com/downloads/en/DeviceDoc/Atmel-7766-8-bit-AVR-ATmega16U4-32U4_Datasheet.pdf" (id 3) (at 0 0 0)
        (effects (font (size 1.27 1.27)) hide)
      )
      (property "ki_keywords" "AVR 8bit Microcontroller MegaAVR USB" (id 4) (at 0 0 0)
        (effects (font (size 1.27 1.27)) hide)
      )
      (property "ki_description" "16MHz, 32kB Flash, 2.5kB SRAM, 1kB EEPROM, USB 2.0, TQFP-44" (id 5) (at 0 0 0)
        (effects (font (size 1.27 1.27)) hide)
      )
      (property "ki_fp_filters" "TQFP*10x10mm*P0.8mm*" (id 6) (at 0 0 0)
        (effects (font (size 1.27 1.27)) hide)
      )
      (symbol "ATmega32U4-A_0_1"
        (rectangle (start -12.7 -43.18) (end 12.7 43.18)
          (stroke (width 0.254) (type default) (color 0 0 0 0))
          (fill (type background))
        )
      )
      (symbol "ATmega32U4-A_1_1"
        (pin bidirectional line (at 15.24 -17.78 180) (length 2.54)
          (name "PE6" (effects (font (size 1.27 1.27))))
          (number "1" (effects (font (size 1.27 1.27))))
        )
        (pin bidirectional line (at 15.24 33.02 180) (length 2.54)
          (name "PB2" (effects (font (size 1.27 1.27))))
          (number "10" (effects (font (size 1.27 1.27))))
        )
        (pin bidirectional line (at 15.24 30.48 180) (length 2.54)
          (name "PB3" (effects (font (size 1.27 1.27))))
          (number "11" (effects (font (size 1.27 1.27))))
        )
        (pin bidirectional line (at 15.24 20.32 180) (length 2.54)
          (name "PB7" (effects (font (size 1.27 1.27))))
          (number "12" (effects (font (size 1.27 1.27))))
        )
        (pin input line (at -15.24 38.1 0) (length 2.54)
          (name "~{RESET}" (effects (font (size 1.27 1.27))))
          (number "13" (effects (font (size 1.27 1.27))))
        )
        (pin power_in line (at 0 45.72 270) (length 2.54)
          (name "VCC" (effects (font (size 1.27 1.27))))
          (number "14" (effects (font (size 1.27 1.27))))
        )
        (pin power_in line (at 0 -45.72 90) (length 2.54)
          (name "GND" (effects (font (size 1.27 1.27))))
          (number "15" (effects (font (size 1.27 1.27))))
        )
        (pin output line (at -15.24 27.94 0) (length 2.54)
          (name "XTAL2" (effects (font (size 1.27 1.27))))
          (number "16" (effects (font (size 1.27 1.27))))
        )
        (pin input line (at -15.24 33.02 0) (length 2.54)
          (name "XTAL1" (effects (font (size 1.27 1.27))))
          (number "17" (effects (font (size 1.27 1.27))))
        )
        (pin bidirectional line (at 15.24 7.62 180) (length 2.54)
          (name "PD0" (effects (font (size 1.27 1.27))))
          (number "18" (effects (font (size 1.27 1.27))))
        )
        (pin bidirectional line (at 15.24 5.08 180) (length 2.54)
          (name "PD1" (effects (font (size 1.27 1.27))))
          (number "19" (effects (font (size 1.27 1.27))))
        )
        (pin power_in line (at -2.54 45.72 270) (length 2.54)
          (name "UVCC" (effects (font (size 1.27 1.27))))
          (number "2" (effects (font (size 1.27 1.27))))
        )
        (pin bidirectional line (at 15.24 2.54 180) (length 2.54)
          (name "PD2" (effects (font (size 1.27 1.27))))
          (number "20" (effects (font (size 1.27 1.27))))
        )
        (pin bidirectional line (at 15.24 0 180) (length 2.54)
          (name "PD3" (effects (font (size 1.27 1.27))))
          (number "21" (effects (font (size 1.27 1.27))))
        )
        (pin bidirectional line (at 15.24 -5.08 180) (length 2.54)
          (name "PD5" (effects (font (size 1.27 1.27))))
          (number "22" (effects (font (size 1.27 1.27))))
        )
        (pin passive line (at 0 -45.72 90) (length 2.54) hide
          (name "GND" (effects (font (size 1.27 1.27))))
          (number "23" (effects (font (size 1.27 1.27))))
        )
        (pin power_in line (at 2.54 45.72 270) (length 2.54)
          (name "AVCC" (effects (font (size 1.27 1.27))))
          (number "24" (effects (font (size 1.27 1.27))))
        )
        (pin bidirectional line (at 15.24 -2.54 180) (length 2.54)
          (name "PD4" (effects (font (size 1.27 1.27))))
          (number "25" (effects (font (size 1.27 1.27))))
        )
        (pin bidirectional line (at 15.24 -7.62 180) (length 2.54)
          (name "PD6" (effects (font (size 1.27 1.27))))
          (number "26" (effects (font (size 1.27 1.27))))
        )
        (pin bidirectional line (at 15.24 -10.16 180) (length 2.54)
          (name "PD7" (effects (font (size 1.27 1.27))))
          (number "27" (effects (font (size 1.27 1.27))))
        )
        (pin bidirectional line (at 15.24 27.94 180) (length 2.54)
          (name "PB4" (effects (font (size 1.27 1.27))))
          (number "28" (effects (font (size 1.27 1.27))))
        )
        (pin bidirectional line (at 15.24 25.4 180) (length 2.54)
          (name "PB5" (effects (font (size 1.27 1.27))))
          (number "29" (effects (font (size 1.27 1.27))))
        )
        (pin bidirectional line (at -15.24 10.16 0) (length 2.54)
          (name "D-" (effects (font (size 1.27 1.27))))
          (number "3" (effects (font (size 1.27 1.27))))
        )
        (pin bidirectional line (at 15.24 22.86 180) (length 2.54)
          (name "PB6" (effects (font (size 1.27 1.27))))
          (number "30" (effects (font (size 1.27 1.27))))
        )
        (pin bidirectional line (at 15.24 15.24 180) (length 2.54)
          (name "PC6" (effects (font (size 1.27 1.27))))
          (number "31" (effects (font (size 1.27 1.27))))
        )
        (pin bidirectional line (at 15.24 12.7 180) (length 2.54)
          (name "PC7" (effects (font (size 1.27 1.27))))
          (number "32" (effects (font (size 1.27 1.27))))
        )
        (pin bidirectional line (at 15.24 -15.24 180) (length 2.54)
          (name "~{HWB}/PE2" (effects (font (size 1.27 1.27))))
          (number "33" (effects (font (size 1.27 1.27))))
        )
        (pin passive line (at 0 45.72 270) (length 2.54) hide
          (name "VCC" (effects (font (size 1.27 1.27))))
          (number "34" (effects (font (size 1.27 1.27))))
        )
        (pin passive line (at 0 -45.72 90) (length 2.54) hide
          (name "GND" (effects (font (size 1.27 1.27))))
          (number "35" (effects (font (size 1.27 1.27))))
        )
        (pin bidirectional line (at 15.24 -35.56 180) (length 2.54)
          (name "PF7" (effects (font (size 1.27 1.27))))
          (number "36" (effects (font (size 1.27 1.27))))
        )
        (pin bidirectional line (at 15.24 -33.02 180) (length 2.54)
          (name "PF6" (effects (font (size 1.27 1.27))))
          (number "37" (effects (font (size 1.27 1.27))))
        )
        (pin bidirectional line (at 15.24 -30.48 180) (length 2.54)
          (name "PF5" (effects (font (size 1.27 1.27))))
          (number "38" (effects (font (size 1.27 1.27))))
        )
        (pin bidirectional line (at 15.24 -27.94 180) (length 2.54)
          (name "PF4" (effects (font (size 1.27 1.27))))
          (number "39" (effects (font (size 1.27 1.27))))
        )
        (pin bidirectional line (at -15.24 12.7 0) (length 2.54)
          (name "D+" (effects (font (size 1.27 1.27))))
          (number "4" (effects (font (size 1.27 1.27))))
        )
        (pin bidirectional line (at 15.24 -25.4 180) (length 2.54)
          (name "PF1" (effects (font (size 1.27 1.27))))
          (number "40" (effects (font (size 1.27 1.27))))
        )
        (pin bidirectional line (at 15.24 -22.86 180) (length 2.54)
          (name "PF0" (effects (font (size 1.27 1.27))))
          (number "41" (effects (font (size 1.27 1.27))))
        )
        (pin passive line (at -15.24 22.86 0) (length 2.54)
          (name "AREF" (effects (font (size 1.27 1.27))))
          (number "42" (effects (font (size 1.27 1.27))))
        )
        (pin passive line (at 0 -45.72 90) (length 2.54) hide
          (name "GND" (effects (font (size 1.27 1.27))))
          (number "43" (effects (font (size 1.27 1.27))))
        )
        (pin passive line (at 2.54 45.72 270) (length 2.54) hide
          (name "AVCC" (effects (font (size 1.27 1.27))))
          (number "44" (effects (font (size 1.27 1.27))))
        )
        (pin passive line (at -2.54 -45.72 90) (length 2.54)
          (name "UGND" (effects (font (size 1.27 1.27))))
          (number "5" (effects (font (size 1.27 1.27))))
        )
        (pin passive line (at -15.24 5.08 0) (length 2.54)
          (name "UCAP" (effects (font (size 1.27 1.27))))
          (number "6" (effects (font (size 1.27 1.27))))
        )
        (pin input line (at -15.24 17.78 0) (length 2.54)
          (name "VBUS" (effects (font (size 1.27 1.27))))
          (number "7" (effects (font (size 1.27 1.27))))
        )
        (pin bidirectional line (at 15.24 38.1 180) (length 2.54)
          (name "PB0" (effects (font (size 1.27 1.27))))
          (number "8" (effects (font (size 1.27 1.27))))
        )
        (pin bidirectional line (at 15.24 35.56 180) (length 2.54)
          (name "PB1" (effects (font (size 1.27 1.27))))
          (number "9" (effects (font (size 1.27 1.27))))
        )
      )
    )
    (symbol "power:+5V" (power) (pin_names (offset 0)) (in_bom yes) (on_board yes)
      (property "Reference" "#PWR" (id 0) (at 0 -3.81 0)
        (effects (font (size 1.27 1.27)) hide)
      )
      (property "Value" "+5V" (id 1) (at 0 3.556 0)
        (effects (font (size 1.27 1.27)))
      )
      (property "Footprint" "" (id 2) (at 0 0 0)
        (effects (font (size 1.27 1.27)) hide)
      )
      (property "Datasheet" "" (id 3) (at 0 0 0)
        (effects (font (size 1.27 1.27)) hide)
      )
      (property "ki_keywords" "power-flag" (id 4) (at 0 0 0)
        (effects (font (size 1.27 1.27)) hide)
      )
      (property "ki_description" "Power symbol creates a global label with name \"+5V\"" (id 5) (at 0 0 0)
        (effects (font (size 1.27 1.27)) hide)
      )
      (symbol "+5V_0_1"
        (polyline
          (pts
            (xy -0.762 1.27)
            (xy 0 2.54)
          )
          (stroke (width 0) (type default) (color 0 0 0 0))
          (fill (type none))
        )
        (polyline
          (pts
            (xy 0 0)
            (xy 0 2.54)
          )
          (stroke (width 0) (type default) (color 0 0 0 0))
          (fill (type none))
        )
        (polyline
          (pts
            (xy 0 2.54)
            (xy 0.762 1.27)
          )
          (stroke (width 0) (type default) (color 0 0 0 0))
          (fill (type none))
        )
      )
      (symbol "+5V_1_1"
        (pin power_in line (at 0 0 90) (length 0) hide
          (name "+5V" (effects (font (size 1.27 1.27))))
          (number "1" (effects (font (size 1.27 1.27))))
        )
      )
    )
    (symbol "power:GND" (power) (pin_names (offset 0)) (in_bom yes) (on_board yes)
      (property "Reference" "#PWR" (id 0) (at 0 -6.35 0)
        (effects (font (size 1.27 1.27)) hide)
      )
      (property "Value" "GND" (id 1) (at 0 -3.81 0)
        (effects (font (size 1.27 1.27)))
      )
      (property "Footprint" "" (id 2) (at 0 0 0)
        (effects (font (size 1.27 1.27)) hide)
      )
      (property "Datasheet" "" (id 3) (at 0 0 0)
        (effects (font (size 1.27 1.27)) hide)
      )
      (property "ki_keywords" "power-flag" (id 4) (at 0 0 0)
        (effects (font (size 1.27 1.27)) hide)
      )
      (property "ki_description" "Power symbol creates a global label with name \"GND\" , ground" (id 5) (at 0 0 0)
        (effects (font (size 1.27 1.27)) hide)
      )
      (symbol "GND_0_1"
        (polyline
          (pts
            (xy 0 0)
            (xy 0 -1.27)
            (xy 1.27 -1.27)
            (xy 0 -2.54)
            (xy -1.27 -1.27)
            (xy 0 -1.27)
          )
          (stroke (width 0) (type default) (color 0 0 0 0))
          (fill (type none))
        )
      )
      (symbol "GND_1_1"
        (pin power_in line (at 0 0 270) (length 0) hide
          (name "GND" (effects (font (size 1.27 1.27))))
          (number "1" (effects (font (size 1.27 1.27))))
        )
      )
    )
  )

  (junction (at 241.3 35.56) (diameter 0) (color 0 0 0 0)
    (uuid 488c28b4-25ca-4f81-9895-a977a17c2928)
  )
  (junction (at 238.76 127) (diameter 0) (color 0 0 0 0)
    (uuid 61bb8fa0-b998-4d09-a7cd-5a3907160af9)
  )
  (junction (at 238.76 35.56) (diameter 0) (color 0 0 0 0)
    (uuid 83d24e95-4fc6-4075-a1f4-d681c6c337a4)
  )

  (wire (pts (xy 241.3 35.56) (xy 243.84 35.56))
    (stroke (width 0) (type default) (color 0 0 0 0))
    (uuid 3ebcafdf-e387-4335-83b6-8a1c99323e9f)
  )
  (wire (pts (xy 238.76 127) (xy 229.87 127))
    (stroke (width 0) (type default) (color 0 0 0 0))
    (uuid 61361e21-69e0-4ad0-8a0e-09204d73ae94)
  )
  (wire (pts (xy 238.76 127) (xy 241.3 127))
    (stroke (width 0) (type default) (color 0 0 0 0))
    (uuid 76a34790-ff0e-49e1-9c14-686f4c9cb88c)
  )
  (wire (pts (xy 238.76 29.21) (xy 238.76 35.56))
    (stroke (width 0) (type default) (color 0 0 0 0))
    (uuid 9607ee10-34cb-49bb-bbaf-2195bc62a1d2)
  )
  (wire (pts (xy 238.76 35.56) (xy 241.3 35.56))
    (stroke (width 0) (type default) (color 0 0 0 0))
    (uuid d9760657-0c1d-45c5-a510-5880bb541fd1)
  )

  (symbol (lib_id "power:GND") (at 229.87 127 0) (unit 1)
    (in_bom yes) (on_board yes) (fields_autoplaced)
    (uuid 5b8c4070-61b2-4130-8686-e86c5f00699c)
    (property "Reference" "#PWR?" (id 0) (at 229.87 133.35 0)
      (effects (font (size 1.27 1.27)) hide)
    )
    (property "Value" "GND" (id 1) (at 229.87 132.08 0))
    (property "Footprint" "" (id 2) (at 229.87 127 0)
      (effects (font (size 1.27 1.27)) hide)
    )
    (property "Datasheet" "" (id 3) (at 229.87 127 0)
      (effects (font (size 1.27 1.27)) hide)
    )
    (pin "1" (uuid 248da520-23b1-4913-9a4c-d5081217902b))
  )

  (symbol (lib_id "MCU_Microchip_ATmega:ATmega32U4-A") (at 241.3 81.28 0) (unit 1)
    (in_bom yes) (on_board yes) (fields_autoplaced)
    (uuid 8b868d76-be50-4a63-b5db-88e4f50bae4e)
    (property "Reference" "U?" (id 0) (at 243.3194 127 0)
      (effects (font (size 1.27 1.27)) (justify left))
    )
    (property "Value" "ATmega32U4-A" (id 1) (at 243.3194 129.54 0)
      (effects (font (size 1.27 1.27)) (justify left))
    )
    (property "Footprint" "Package_QFP:TQFP-44_10x10mm_P0.8mm" (id 2) (at 241.3 81.28 0)
      (effects (font (size 1.27 1.27) italic) hide)
    )
    (property "Datasheet" "http://ww1.microchip.com/downloads/en/DeviceDoc/Atmel-7766-8-bit-AVR-ATmega16U4-32U4_Datasheet.pdf" (id 3) (at 241.3 81.28 0)
      (effects (font (size 1.27 1.27)) hide)
    )
    (pin "1" (uuid 68cf12cc-44ec-49b1-b8b5-c2234d2553dc))
    (pin "10" (uuid 93103a50-48a1-45e6-93d0-b3cf483ba4f8))
    (pin "11" (uuid fc96b5cb-5552-42c4-b5b5-a9f276d82059))
    (pin "12" (uuid 16b1c944-2034-4c6a-8fd6-4e35135e93c7))
    (pin "13" (uuid bf64587d-22d8-4067-80da-0942cc054ecc))
    (pin "14" (uuid 9910f501-c60a-4d00-9d5d-ea4acd934e79))
    (pin "15" (uuid ea8bf023-f627-4ae6-9e40-5864ec33c573))
    (pin "16" (uuid 5bb4ea4b-e22e-4452-ab65-18e412d85ca2))
    (pin "17" (uuid 07cf80c0-3d64-44ca-b9d9-192a708a178c))
    (pin "18" (uuid c3c3b926-8caa-453e-8bcd-a39fdeb518fa))
    (pin "19" (uuid fd3f6a0d-29eb-4372-979b-89a11a79accc))
    (pin "2" (uuid e2f68123-a1ab-470b-a5ef-878952b3ad02))
    (pin "20" (uuid 852eca35-d2d9-4656-b9a4-bf3839a5f474))
    (pin "21" (uuid 2e765c3d-b288-4232-940e-28f2a4ba64e6))
    (pin "22" (uuid 3bddc915-312d-49fc-93a4-ff215da9cfcd))
    (pin "23" (uuid 9473ef37-a401-4fcf-afc1-8517262f991a))
    (pin "24" (uuid 41e6fb6e-990d-4efc-9056-cd7dfeb80090))
    (pin "25" (uuid 1087ee24-3990-4e4a-af48-1d31bf42fc62))
    (pin "26" (uuid 83f17633-c262-45ae-bdf6-3b14c27bb3e7))
    (pin "27" (uuid 1a778f08-7361-4958-8ca1-a697ac569902))
    (pin "28" (uuid 59bee0d1-8bae-4b3b-94a5-fff272b26d66))
    (pin "29" (uuid 46f2dfc0-c24f-487b-b804-afc4a358136f))
    (pin "3" (uuid acfe0b76-0cbe-4286-b9a0-82ad073209ef))
    (pin "30" (uuid 021f4916-4e15-4478-8843-a95a7b996954))
    (pin "31" (uuid 410f9e48-e193-4fd4-8452-b9f54f29a503))
    (pin "32" (uuid 1a2b4257-2a61-4c0b-9e7e-de39b908cb51))
    (pin "33" (uuid da677495-c28f-46b4-8015-45ff1efc33a7))
    (pin "34" (uuid c4679c88-80c4-4f51-af80-9b6ca4217389))
    (pin "35" (uuid 272ce424-872c-47f3-b9a6-410bf1602b7e))
    (pin "36" (uuid 6273d523-a4aa-4e6c-b7fb-3b671b333035))
    (pin "37" (uuid 42519384-34d9-4bd2-9739-2e9866109113))
    (pin "38" (uuid 0694c0f7-914a-4b74-a9f3-25a297de52a5))
    (pin "39" (uuid 74361f20-b4dc-425c-bed8-2aaad50881fd))
    (pin "4" (uuid 048147fb-2370-4e2e-8543-80c79ad2dda5))
    (pin "40" (uuid 271b6e72-a9f5-49e6-81dc-91081851e685))
    (pin "41" (uuid 2fdf4f98-fc01-4ffc-8c7d-b3ea6d9c3490))
    (pin "42" (uuid d506e910-067e-4a82-b64d-7f749b2d50d4))
    (pin "43" (uuid 8481fa7d-8661-4d65-b806-741d9eeba2ed))
    (pin "44" (uuid 59299cad-bc4d-416e-a33c-b1039998d450))
    (pin "5" (uuid 49f24f5a-850a-4e92-919c-6db279615fcc))
    (pin "6" (uuid 705e76f9-43f0-40b6-bd6e-84caf588c2ae))
    (pin "7" (uuid 0c68d662-65dc-424f-ab96-675230d80b77))
    (pin "8" (uuid c04034aa-be86-4aad-82fd-49dba00fff39))
    (pin "9" (uuid 92cd9fa7-b6c6-45ca-b7e6-c5c2c6875acf))
  )

  (symbol (lib_id "power:+5V") (at 238.76 29.21 0) (unit 1)
    (in_bom yes) (on_board yes) (fields_autoplaced)
    (uuid ba28a32b-bafc-451b-8f88-77ee4625e5d5)
    (property "Reference" "#PWR?" (id 0) (at 238.76 33.02 0)
      (effects (font (size 1.27 1.27)) hide)
    )
    (property "Value" "+5V" (id 1) (at 238.76 24.13 0))
    (property "Footprint" "" (id 2) (at 238.76 29.21 0)
      (effects (font (size 1.27 1.27)) hide)
    )
    (property "Datasheet" "" (id 3) (at 238.76 29.21 0)
      (effects (font (size 1.27 1.27)) hide)
    )
    (pin "1" (uuid b7695a55-e9ab-4472-81d1-b7e67ed5650c))
  )

  (sheet_instances
    (path "/" (page "1"))
  )

  (symbol_instances
    (path "/5b8c4070-61b2-4130-8686-e86c5f00699c"
      (reference "#PWR?") (unit 1) (value "GND") (footprint "")
    )
    (path "/ba28a32b-bafc-451b-8f88-77ee4625e5d5"
      (reference "#PWR?") (unit 1) (value "+5V") (footprint "")
    )
    (path "/8b868d76-be50-4a63-b5db-88e4f50bae4e"
      (reference "U?") (unit 1) (value "ATmega32U4-A") (footprint "Package_QFP:TQFP-44_10x10mm_P0.8mm")
    )
  )
)
